{
  "migIndex": 1,
  "data": [
    {
      "path": "src/assets/camara_amarilla.png",
      "sha1": "a8632a93e1dff402cbc5308a510f7999c7c63725"
    },
    {
      "path": "src/assets/camara_nueva.png",
      "sha1": "4c617a8fc032491655c1e64305ca9708cea70c21"
    },
    {
      "path": "src/assets/cuadricula.png",
      "sha1": "ba272c583e15bddd88d8981e032726756f48cb1a"
    },
    {
      "path": "src/assets/facebook.png",
      "sha1": "5aa8d8a2b53e215cc2cea8687e76b73ba6d9c00d"
    },
    {
      "path": "src/assets/fondo.png",
      "sha1": "557b4a6d5a636f583ebdd55c58f91634f2f38010"
    },
    {
      "path": "src/assets/fonts/Fredoka-Bold.ttf",
      "sha1": "6a9005d8f1c94408f79f5d4af4f90d7580750e5c"
    },
    {
      "path": "src/assets/fonts/Fredoka-Light.ttf",
      "sha1": "e9a8520d875dfee7a2c9d59464b46aebd87757b8"
    },
    {
      "path": "src/assets/fonts/Fredoka-Medium.ttf",
      "sha1": "5cc4f8a51f2fd164bf8140e9676d4c004118f7cb"
    },
    {
      "path": "src/assets/fonts/Fredoka-Regular.ttf",
      "sha1": "6d54c49e5d9154575cfc4f0e8a31659106a671df"
    },
    {
      "path": "src/assets/fonts/Fredoka-SemiBold.ttf",
      "sha1": "6ada6e6364fb07bd3376626467cad7e77285d236"
    },
    {
      "path": "src/assets/fonts/Fredoka_Condensed-Bold.ttf",
      "sha1": "93cf1ca1b103ebc5099e3497a0eb36edee2b85b3"
    },
    {
      "path": "src/assets/fonts/Fredoka_Condensed-Light.ttf",
      "sha1": "b87f5cb34cee66d108bf7679d3dbcf35021ff53e"
    },
    {
      "path": "src/assets/fonts/Fredoka_Condensed-Medium.ttf",
      "sha1": "fc7229e8f3bb55219957c7c4cc3de0545436a742"
    },
    {
      "path": "src/assets/fonts/Fredoka_Condensed-Regular.ttf",
      "sha1": "073bc08788aade2b3f59bc776a7e61baa4ee8878"
    },
    {
      "path": "src/assets/fonts/Fredoka_Condensed-SemiBold.ttf",
      "sha1": "3be27dcd862cc5570c3dbe4a8655fd28312d6021"
    },
    {
      "path": "src/assets/fonts/Fredoka_Expanded-Bold.ttf",
      "sha1": "a8bb2e0ddb9455f96a2e302caad2fa07caee7fd7"
    },
    {
      "path": "src/assets/fonts/Fredoka_Expanded-Light.ttf",
      "sha1": "548b8a0ce19093302a9cd1c9243acfe584e16510"
    },
    {
      "path": "src/assets/fonts/Fredoka_Expanded-Medium.ttf",
      "sha1": "76514e8a5c99e9458491bd8b00a63981b787ee31"
    },
    {
      "path": "src/assets/fonts/Fredoka_Expanded-Regular.ttf",
      "sha1": "b2fef3101f1dd746c2b3248a9b2cb847693b57a2"
    },
    {
      "path": "src/assets/fonts/Fredoka_Expanded-SemiBold.ttf",
      "sha1": "ac0689013efef2059061549b10e91adf0ee7cfbf"
    },
    {
      "path": "src/assets/fonts/Fredoka_SemiCondensed-Bold.ttf",
      "sha1": "776994c47a4edb3cadd413b45cc5f55da41f2e82"
    },
    {
      "path": "src/assets/fonts/Fredoka_SemiCondensed-Light.ttf",
      "sha1": "707741230b3a1916c548020e9d8b76ab134d513d"
    },
    {
      "path": "src/assets/fonts/Fredoka_SemiCondensed-Medium.ttf",
      "sha1": "2adb46292f5e65b54d4eb8edf1babf55462b4bd5"
    },
    {
      "path": "src/assets/fonts/Fredoka_SemiCondensed-Regular.ttf",
      "sha1": "9a17611e5b5fb861889bffa2bd037a356003cc21"
    },
    {
      "path": "src/assets/fonts/Fredoka_SemiCondensed-SemiBold.ttf",
      "sha1": "8c8812fa8ccdda4043244b7bd1072dc4edb35964"
    },
    {
      "path": "src/assets/fonts/Fredoka_SemiExpanded-Bold.ttf",
      "sha1": "d4eb2ac11be96525fcf4aa0863a8cf6721747171"
    },
    {
      "path": "src/assets/fonts/Fredoka_SemiExpanded-Light.ttf",
      "sha1": "3894807ab3e9a03ffbf64c914d3ba10f8c1f968c"
    },
    {
      "path": "src/assets/fonts/Fredoka_SemiExpanded-Medium.ttf",
      "sha1": "cd180070f1cdf8c9823811ebdfce0058ecca60a6"
    },
    {
      "path": "src/assets/fonts/Fredoka_SemiExpanded-Regular.ttf",
      "sha1": "e9f5e4da26ef5c5180c483cb50249451f93ff2b9"
    },
    {
      "path": "src/assets/fonts/Fredoka_SemiExpanded-SemiBold.ttf",
      "sha1": "15626f9cde987442a3695d65baf5987d2c66d9dc"
    },
    {
      "path": "src/assets/Icon_Tienda.png",
      "sha1": "5680e710ef7ab8303a6b8717e69c989123f4e204"
    },
    {
      "path": "src/assets/instagram.png",
      "sha1": "ab4b9b31deebfc5e96c1d9a7be9339c8ed1d30f2"
    },
    {
      "path": "src/assets/logo.png",
      "sha1": "d7df5774fb62a7899fe08707183c6e706be32a8d"
    },
    {
      "path": "src/assets/log_tachira_gra.png",
      "sha1": "121ddf4d32700091aec6bd3aff1921423ac74e49"
    },
    {
      "path": "src/assets/log_tachira_peq.png",
      "sha1": "5da3efc35b281d332b9293f8fcf5d71f437fbae7"
    },
    {
      "path": "src/assets/Pantalla_Inicio.png",
      "sha1": "fa6124f289f33568d8cb85b6102152656cd22f2e"
    },
    {
      "path": "src/assets/Premio_1.png",
      "sha1": "a248a030b30c45e384a794e8f46eb47a6571e2c8"
    },
    {
      "path": "src/assets/Premio_2.png",
      "sha1": "beac3290bcff062c09b77e9a2e4140ae9e0b91aa"
    },
    {
      "path": "src/assets/Premio_3.png",
      "sha1": "c6de7f8c05c26eb64d4a77de4648dbbf854c2cff"
    },
    {
      "path": "src/assets/Premio_4.png",
      "sha1": "41656bc854a64357dad021742c23fce2f4f7bf0d"
    },
    {
      "path": "src/assets/Premio_5.png",
      "sha1": "ca0f5e0e7cbbd95353103a70bcb6f69a4e2b3601"
    },
    {
      "path": "src/assets/Premio_6.png",
      "sha1": "0a365bbf2a3b72ed706dc2073b295e3740dcb710"
    },
    {
      "path": "src/assets/Premio_7.png",
      "sha1": "39e34d49619ca2d18a3ed3e5820986340456baca"
    },
    {
      "path": "src/assets/Premio_8.png",
      "sha1": "6f0840a551a729e555a0aa476f164a3039c42fae"
    },
    {
      "path": "src/assets/qr.png",
      "sha1": "47d786eacc64c4fc5ed006cbb77f799f9188f76c"
    },
    {
      "path": "src/assets/scanStyle.js",
      "sha1": "f56983752bd0a4223cdf960f99ae52cacfe5b814"
    },
    {
      "path": "src/assets/styles.js",
      "sha1": "b51d808a10b8e0f7807dc0313bc7afe40031cbc4"
    },
    {
      "path": "src/assets/twitter.png",
      "sha1": "3c10a400823f0b0fb08a6d59d460004668439ff2"
    }
  ]
}
